ISO-10303-21;
HEADER;
FILE_DESCRIPTION((''),'2;1');
FILE_NAME('ZEISS_STAND_V4','2019-04-14T15:38:30',('diego'),(''),
'CREO PARAMETRIC BY PTC INC, 2018100','CREO PARAMETRIC BY PTC INC, 2018100','');
FILE_SCHEMA(('CONFIG_CONTROL_DESIGN'));
ENDSEC;
DATA;
#1=DIRECTION('',(0.E0,0.E0,1.E0));
#2=VECTOR('',#1,8.0362E1);
#3=CARTESIAN_POINT('',(5.9055E1,9.525E0,-1.21255E2));
#4=LINE('',#3,#2);
#5=CARTESIAN_POINT('',(7.3865E1,9.525E0,-1.21255E2));
#6=DIRECTION('',(0.E0,1.E0,0.E0));
#7=DIRECTION('',(0.E0,0.E0,-1.E0));
#8=AXIS2_PLACEMENT_3D('',#5,#6,#7);
#10=DIRECTION('',(-1.E0,0.E0,0.E0));
#11=VECTOR('',#10,1.304E2);
#12=CARTESIAN_POINT('',(2.04265E2,9.525E0,-1.36065E2));
#13=LINE('',#12,#11);
#14=CARTESIAN_POINT('',(2.04265E2,9.525E0,-1.21255E2));
#15=DIRECTION('',(0.E0,1.E0,0.E0));
#16=DIRECTION('',(1.E0,0.E0,0.E0));
#17=AXIS2_PLACEMENT_3D('',#14,#15,#16);
#19=DIRECTION('',(0.E0,0.E0,-1.E0));
#20=VECTOR('',#19,8.0362E1);
#21=CARTESIAN_POINT('',(2.19075E2,9.525E0,-4.0893E1));
#22=LINE('',#21,#20);
#23=CARTESIAN_POINT('',(2.04265E2,9.525E0,-4.0893E1));
#24=DIRECTION('',(0.E0,1.E0,0.E0));
#25=DIRECTION('',(0.E0,0.E0,1.E0));
#26=AXIS2_PLACEMENT_3D('',#23,#24,#25);
#28=DIRECTION('',(1.E0,0.E0,0.E0));
#29=VECTOR('',#28,1.304E2);
#30=CARTESIAN_POINT('',(7.3865E1,9.525E0,-2.6083E1));
#31=LINE('',#30,#29);
#32=CARTESIAN_POINT('',(7.3865E1,9.525E0,-4.0893E1));
#33=DIRECTION('',(0.E0,1.E0,0.E0));
#34=DIRECTION('',(-1.E0,0.E0,0.E0));
#35=AXIS2_PLACEMENT_3D('',#32,#33,#34);
#37=DIRECTION('',(1.E0,0.E0,0.E0));
#38=VECTOR('',#37,1.328101697547E2);
#39=CARTESIAN_POINT('',(7.265991512265E1,9.525E0,-1.22065E2));
#40=LINE('',#39,#38);
#41=DIRECTION('',(0.E0,0.E0,-1.E0));
#42=VECTOR('',#41,8.8482E1);
#43=CARTESIAN_POINT('',(7.265991512265E1,9.525E0,-3.3583E1));
#44=LINE('',#43,#42);
#45=DIRECTION('',(-1.E0,0.E0,0.E0));
#46=VECTOR('',#45,1.328101697547E2);
#47=CARTESIAN_POINT('',(2.054700848773E2,9.525E0,-3.3583E1));
#48=LINE('',#47,#46);
#49=DIRECTION('',(0.E0,0.E0,1.E0));
#50=VECTOR('',#49,8.8482E1);
#51=CARTESIAN_POINT('',(2.054700848773E2,9.525E0,-1.22065E2));
#52=LINE('',#51,#50);
#53=DIRECTION('',(0.E0,-1.E0,0.E0));
#54=VECTOR('',#53,1.1684E0);
#55=CARTESIAN_POINT('',(5.9055E1,9.525E0,-1.21255E2));
#56=LINE('',#55,#54);
#57=DIRECTION('',(0.E0,-1.E0,0.E0));
#58=VECTOR('',#57,1.1684E0);
#59=CARTESIAN_POINT('',(5.9055E1,9.525E0,-4.0893E1));
#60=LINE('',#59,#58);
#61=DIRECTION('',(0.E0,-1.E0,0.E0));
#62=VECTOR('',#61,1.1684E0);
#63=CARTESIAN_POINT('',(7.3865E1,9.525E0,-2.6083E1));
#64=LINE('',#63,#62);
#65=DIRECTION('',(7.297597423075E-14,-1.E0,0.E0));
#66=VECTOR('',#65,1.1684E0);
#67=CARTESIAN_POINT('',(2.04265E2,9.525E0,-2.6083E1));
#68=LINE('',#67,#66);
#69=DIRECTION('',(0.E0,-1.E0,0.E0));
#70=VECTOR('',#69,1.1684E0);
#71=CARTESIAN_POINT('',(2.19075E2,9.525E0,-4.0893E1));
#72=LINE('',#71,#70);
#73=DIRECTION('',(0.E0,-1.E0,0.E0));
#74=VECTOR('',#73,1.1684E0);
#75=CARTESIAN_POINT('',(2.19075E2,9.525E0,-1.21255E2));
#76=LINE('',#75,#74);
#77=DIRECTION('',(0.E0,-1.E0,2.432532474358E-14));
#78=VECTOR('',#77,1.1684E0);
#79=CARTESIAN_POINT('',(2.04265E2,9.525E0,-1.36065E2));
#80=LINE('',#79,#78);
#81=DIRECTION('',(0.E0,-1.E0,0.E0));
#82=VECTOR('',#81,1.1684E0);
#83=CARTESIAN_POINT('',(7.3865E1,9.525E0,-1.36065E2));
#84=LINE('',#83,#82);
#85=DIRECTION('',(0.E0,0.E0,1.E0));
#86=VECTOR('',#85,8.0362E1);
#87=CARTESIAN_POINT('',(5.9055E1,8.3566E0,-1.21255E2));
#88=LINE('',#87,#86);
#89=CARTESIAN_POINT('',(7.3865E1,8.3566E0,-4.0893E1));
#90=DIRECTION('',(0.E0,1.E0,0.E0));
#91=DIRECTION('',(-1.E0,0.E0,0.E0));
#92=AXIS2_PLACEMENT_3D('',#89,#90,#91);
#94=DIRECTION('',(1.E0,0.E0,0.E0));
#95=VECTOR('',#94,1.304E2);
#96=CARTESIAN_POINT('',(7.3865E1,8.3566E0,-2.6083E1));
#97=LINE('',#96,#95);
#98=CARTESIAN_POINT('',(2.04265E2,8.3566E0,-4.0893E1));
#99=DIRECTION('',(0.E0,1.E0,0.E0));
#100=DIRECTION('',(0.E0,0.E0,1.E0));
#101=AXIS2_PLACEMENT_3D('',#98,#99,#100);
#103=DIRECTION('',(0.E0,0.E0,-1.E0));
#104=VECTOR('',#103,8.0362E1);
#105=CARTESIAN_POINT('',(2.19075E2,8.3566E0,-4.0893E1));
#106=LINE('',#105,#104);
#107=CARTESIAN_POINT('',(2.04265E2,8.3566E0,-1.21255E2));
#108=DIRECTION('',(0.E0,1.E0,0.E0));
#109=DIRECTION('',(1.E0,0.E0,0.E0));
#110=AXIS2_PLACEMENT_3D('',#107,#108,#109);
#112=DIRECTION('',(-1.E0,0.E0,0.E0));
#113=VECTOR('',#112,1.304E2);
#114=CARTESIAN_POINT('',(2.04265E2,8.3566E0,-1.36065E2));
#115=LINE('',#114,#113);
#116=CARTESIAN_POINT('',(7.3865E1,8.3566E0,-1.21255E2));
#117=DIRECTION('',(0.E0,1.E0,0.E0));
#118=DIRECTION('',(0.E0,0.E0,-1.E0));
#119=AXIS2_PLACEMENT_3D('',#116,#117,#118);
#121=DIRECTION('',(1.E0,0.E0,0.E0));
#122=VECTOR('',#121,1.328101697547E2);
#123=CARTESIAN_POINT('',(7.265991512265E1,8.3566E0,-1.22065E2));
#124=LINE('',#123,#122);
#125=DIRECTION('',(0.E0,0.E0,1.E0));
#126=VECTOR('',#125,8.8482E1);
#127=CARTESIAN_POINT('',(2.054700848773E2,8.3566E0,-1.22065E2));
#128=LINE('',#127,#126);
#129=DIRECTION('',(-1.E0,0.E0,0.E0));
#130=VECTOR('',#129,1.328101697547E2);
#131=CARTESIAN_POINT('',(2.054700848773E2,8.3566E0,-3.3583E1));
#132=LINE('',#131,#130);
#133=DIRECTION('',(0.E0,0.E0,-1.E0));
#134=VECTOR('',#133,8.8482E1);
#135=CARTESIAN_POINT('',(7.265991512265E1,8.3566E0,-3.3583E1));
#136=LINE('',#135,#134);
#137=DIRECTION('',(0.E0,0.E0,-1.E0));
#138=VECTOR('',#137,8.0362E1);
#139=CARTESIAN_POINT('',(6.2865E1,8.3566E0,-4.0893E1));
#140=LINE('',#139,#138);
#141=CARTESIAN_POINT('',(7.3865E1,8.3566E0,-1.21255E2));
#142=DIRECTION('',(0.E0,-1.E0,0.E0));
#143=DIRECTION('',(-1.E0,0.E0,0.E0));
#144=AXIS2_PLACEMENT_3D('',#141,#142,#143);
#146=DIRECTION('',(1.E0,0.E0,0.E0));
#147=VECTOR('',#146,1.304E2);
#148=CARTESIAN_POINT('',(7.3865E1,8.3566E0,-1.32255E2));
#149=LINE('',#148,#147);
#150=CARTESIAN_POINT('',(2.04265E2,8.3566E0,-1.21255E2));
#151=DIRECTION('',(0.E0,-1.E0,0.E0));
#152=DIRECTION('',(0.E0,0.E0,-1.E0));
#153=AXIS2_PLACEMENT_3D('',#150,#151,#152);
#155=DIRECTION('',(0.E0,0.E0,1.E0));
#156=VECTOR('',#155,8.0362E1);
#157=CARTESIAN_POINT('',(2.15265E2,8.3566E0,-1.21255E2));
#158=LINE('',#157,#156);
#159=CARTESIAN_POINT('',(2.04265E2,8.3566E0,-4.0893E1));
#160=DIRECTION('',(0.E0,-1.E0,0.E0));
#161=DIRECTION('',(1.E0,0.E0,0.E0));
#162=AXIS2_PLACEMENT_3D('',#159,#160,#161);
#164=DIRECTION('',(-1.E0,0.E0,0.E0));
#165=VECTOR('',#164,1.304E2);
#166=CARTESIAN_POINT('',(2.04265E2,8.3566E0,-2.9893E1));
#167=LINE('',#166,#165);
#168=CARTESIAN_POINT('',(7.3865E1,8.3566E0,-4.0893E1));
#169=DIRECTION('',(0.E0,-1.E0,0.E0));
#170=DIRECTION('',(0.E0,0.E0,1.E0));
#171=AXIS2_PLACEMENT_3D('',#168,#169,#170);
#173=DIRECTION('',(1.E0,0.E0,0.E0));
#174=VECTOR('',#173,1.3318984E2);
#175=CARTESIAN_POINT('',(7.247008E1,8.3566E0,-3.3393E1));
#176=LINE('',#175,#174);
#177=DIRECTION('',(0.E0,0.E0,-1.E0));
#178=VECTOR('',#177,8.8862E1);
#179=CARTESIAN_POINT('',(2.0565992E2,8.3566E0,-3.3393E1));
#180=LINE('',#179,#178);
#181=DIRECTION('',(-1.E0,0.E0,0.E0));
#182=VECTOR('',#181,1.3318984E2);
#183=CARTESIAN_POINT('',(2.0565992E2,8.3566E0,-1.22255E2));
#184=LINE('',#183,#182);
#185=DIRECTION('',(0.E0,0.E0,1.E0));
#186=VECTOR('',#185,8.8862E1);
#187=CARTESIAN_POINT('',(7.247008E1,8.3566E0,-1.22255E2));
#188=LINE('',#187,#186);
#189=DIRECTION('',(0.E0,-1.E0,0.E0));
#190=VECTOR('',#189,1.1684E0);
#191=CARTESIAN_POINT('',(7.265991512265E1,9.525E0,-1.22065E2));
#192=LINE('',#191,#190);
#193=DIRECTION('',(0.E0,-1.E0,0.E0));
#194=VECTOR('',#193,1.1684E0);
#195=CARTESIAN_POINT('',(2.054700848773E2,9.525E0,-1.22065E2));
#196=LINE('',#195,#194);
#197=DIRECTION('',(0.E0,-1.E0,0.E0));
#198=VECTOR('',#197,1.1684E0);
#199=CARTESIAN_POINT('',(2.054700848773E2,9.525E0,-3.3583E1));
#200=LINE('',#199,#198);
#201=DIRECTION('',(0.E0,-1.E0,0.E0));
#202=VECTOR('',#201,1.1684E0);
#203=CARTESIAN_POINT('',(7.265991512265E1,9.525E0,-3.3583E1));
#204=LINE('',#203,#202);
#205=DIRECTION('',(0.E0,-1.E0,0.E0));
#206=VECTOR('',#205,8.3566E0);
#207=CARTESIAN_POINT('',(6.2865E1,8.3566E0,-4.0893E1));
#208=LINE('',#207,#206);
#209=DIRECTION('',(0.E0,-1.E0,0.E0));
#210=VECTOR('',#209,8.3566E0);
#211=CARTESIAN_POINT('',(7.3865E1,8.3566E0,-2.9893E1));
#212=LINE('',#211,#210);
#213=DIRECTION('',(0.E0,-1.E0,0.E0));
#214=VECTOR('',#213,8.3566E0);
#215=CARTESIAN_POINT('',(2.04265E2,8.3566E0,-2.9893E1));
#216=LINE('',#215,#214);
#217=DIRECTION('',(0.E0,-1.E0,0.E0));
#218=VECTOR('',#217,8.3566E0);
#219=CARTESIAN_POINT('',(2.15265E2,8.3566E0,-4.0893E1));
#220=LINE('',#219,#218);
#221=DIRECTION('',(0.E0,-1.E0,0.E0));
#222=VECTOR('',#221,8.3566E0);
#223=CARTESIAN_POINT('',(2.15265E2,8.3566E0,-1.21255E2));
#224=LINE('',#223,#222);
#225=DIRECTION('',(0.E0,-1.E0,0.E0));
#226=VECTOR('',#225,8.3566E0);
#227=CARTESIAN_POINT('',(2.04265E2,8.3566E0,-1.32255E2));
#228=LINE('',#227,#226);
#229=DIRECTION('',(0.E0,-1.E0,0.E0));
#230=VECTOR('',#229,8.3566E0);
#231=CARTESIAN_POINT('',(7.3865E1,8.3566E0,-1.32255E2));
#232=LINE('',#231,#230);
#233=DIRECTION('',(0.E0,-1.E0,0.E0));
#234=VECTOR('',#233,8.3566E0);
#235=CARTESIAN_POINT('',(6.2865E1,8.3566E0,-1.21255E2));
#236=LINE('',#235,#234);
#237=DIRECTION('',(1.E0,0.E0,0.E0));
#238=VECTOR('',#237,1.024E2);
#239=CARTESIAN_POINT('',(8.7865E1,0.E0,-3.7893E1));
#240=LINE('',#239,#238);
#241=CARTESIAN_POINT('',(8.7865E1,0.E0,-4.5893E1));
#242=DIRECTION('',(0.E0,1.E0,0.E0));
#243=DIRECTION('',(-1.E0,0.E0,0.E0));
#244=AXIS2_PLACEMENT_3D('',#241,#242,#243);
#246=DIRECTION('',(0.E0,0.E0,1.E0));
#247=VECTOR('',#246,6.1862E1);
#248=CARTESIAN_POINT('',(7.9865E1,0.E0,-1.07755E2));
#249=LINE('',#248,#247);
#250=CARTESIAN_POINT('',(8.7865E1,0.E0,-1.07755E2));
#251=DIRECTION('',(0.E0,1.E0,0.E0));
#252=DIRECTION('',(0.E0,0.E0,-1.E0));
#253=AXIS2_PLACEMENT_3D('',#250,#251,#252);
#255=DIRECTION('',(-1.E0,0.E0,0.E0));
#256=VECTOR('',#255,1.024E2);
#257=CARTESIAN_POINT('',(1.90265E2,0.E0,-1.15755E2));
#258=LINE('',#257,#256);
#259=CARTESIAN_POINT('',(1.90265E2,0.E0,-1.07755E2));
#260=DIRECTION('',(0.E0,1.E0,0.E0));
#261=DIRECTION('',(1.E0,0.E0,0.E0));
#262=AXIS2_PLACEMENT_3D('',#259,#260,#261);
#264=DIRECTION('',(0.E0,0.E0,-1.E0));
#265=VECTOR('',#264,6.1862E1);
#266=CARTESIAN_POINT('',(1.98265E2,0.E0,-4.5893E1));
#267=LINE('',#266,#265);
#268=CARTESIAN_POINT('',(1.90265E2,0.E0,-4.5893E1));
#269=DIRECTION('',(0.E0,1.E0,0.E0));
#270=DIRECTION('',(0.E0,0.E0,1.E0));
#271=AXIS2_PLACEMENT_3D('',#268,#269,#270);
#273=DIRECTION('',(0.E0,0.E0,-1.E0));
#274=VECTOR('',#273,8.0362E1);
#275=CARTESIAN_POINT('',(6.2865E1,0.E0,-4.0893E1));
#276=LINE('',#275,#274);
#277=CARTESIAN_POINT('',(7.3865E1,0.E0,-4.0893E1));
#278=DIRECTION('',(0.E0,-1.E0,0.E0));
#279=DIRECTION('',(0.E0,0.E0,1.E0));
#280=AXIS2_PLACEMENT_3D('',#277,#278,#279);
#282=DIRECTION('',(-1.E0,0.E0,0.E0));
#283=VECTOR('',#282,1.304E2);
#284=CARTESIAN_POINT('',(2.04265E2,0.E0,-2.9893E1));
#285=LINE('',#284,#283);
#286=CARTESIAN_POINT('',(2.04265E2,0.E0,-4.0893E1));
#287=DIRECTION('',(0.E0,-1.E0,0.E0));
#288=DIRECTION('',(1.E0,0.E0,0.E0));
#289=AXIS2_PLACEMENT_3D('',#286,#287,#288);
#291=DIRECTION('',(0.E0,0.E0,1.E0));
#292=VECTOR('',#291,8.0362E1);
#293=CARTESIAN_POINT('',(2.15265E2,0.E0,-1.21255E2));
#294=LINE('',#293,#292);
#295=CARTESIAN_POINT('',(2.04265E2,0.E0,-1.21255E2));
#296=DIRECTION('',(0.E0,-1.E0,0.E0));
#297=DIRECTION('',(0.E0,0.E0,-1.E0));
#298=AXIS2_PLACEMENT_3D('',#295,#296,#297);
#300=DIRECTION('',(1.E0,0.E0,0.E0));
#301=VECTOR('',#300,1.304E2);
#302=CARTESIAN_POINT('',(7.3865E1,0.E0,-1.32255E2));
#303=LINE('',#302,#301);
#304=CARTESIAN_POINT('',(7.3865E1,0.E0,-1.21255E2));
#305=DIRECTION('',(0.E0,-1.E0,0.E0));
#306=DIRECTION('',(-1.E0,0.E0,0.E0));
#307=AXIS2_PLACEMENT_3D('',#304,#305,#306);
#309=DIRECTION('',(0.E0,1.E0,0.E0));
#310=VECTOR('',#309,2.648E0);
#311=CARTESIAN_POINT('',(8.7865E1,0.E0,-3.7893E1));
#312=LINE('',#311,#310);
#313=DIRECTION('',(-1.073327395408E-14,1.E0,0.E0));
#314=VECTOR('',#313,2.648E0);
#315=CARTESIAN_POINT('',(1.90265E2,0.E0,-3.7893E1));
#316=LINE('',#315,#314);
#317=DIRECTION('',(-1.073327395408E-14,1.E0,0.E0));
#318=VECTOR('',#317,2.648E0);
#319=CARTESIAN_POINT('',(1.98265E2,0.E0,-4.5893E1));
#320=LINE('',#319,#318);
#321=DIRECTION('',(-1.073327395408E-14,1.E0,0.E0));
#322=VECTOR('',#321,2.648E0);
#323=CARTESIAN_POINT('',(1.98265E2,0.E0,-1.07755E2));
#324=LINE('',#323,#322);
#325=DIRECTION('',(-1.073327395408E-14,1.E0,0.E0));
#326=VECTOR('',#325,2.648E0);
#327=CARTESIAN_POINT('',(1.90265E2,0.E0,-1.15755E2));
#328=LINE('',#327,#326);
#329=DIRECTION('',(0.E0,1.E0,0.E0));
#330=VECTOR('',#329,2.648E0);
#331=CARTESIAN_POINT('',(8.7865E1,0.E0,-1.15755E2));
#332=LINE('',#331,#330);
#333=DIRECTION('',(0.E0,1.E0,0.E0));
#334=VECTOR('',#333,2.648E0);
#335=CARTESIAN_POINT('',(7.9865E1,0.E0,-1.07755E2));
#336=LINE('',#335,#334);
#337=DIRECTION('',(0.E0,1.E0,0.E0));
#338=VECTOR('',#337,2.648E0);
#339=CARTESIAN_POINT('',(7.9865E1,0.E0,-4.5893E1));
#340=LINE('',#339,#338);
#341=DIRECTION('',(1.E0,0.E0,0.E0));
#342=VECTOR('',#341,1.024E2);
#343=CARTESIAN_POINT('',(8.7865E1,2.648E0,-3.7893E1));
#344=LINE('',#343,#342);
#345=CARTESIAN_POINT('',(1.90265E2,2.648E0,-4.5893E1));
#346=DIRECTION('',(0.E0,1.E0,0.E0));
#347=DIRECTION('',(0.E0,0.E0,1.E0));
#348=AXIS2_PLACEMENT_3D('',#345,#346,#347);
#350=DIRECTION('',(0.E0,0.E0,-1.E0));
#351=VECTOR('',#350,6.1862E1);
#352=CARTESIAN_POINT('',(1.98265E2,2.648E0,-4.5893E1));
#353=LINE('',#352,#351);
#354=CARTESIAN_POINT('',(1.90265E2,2.648E0,-1.07755E2));
#355=DIRECTION('',(0.E0,1.E0,0.E0));
#356=DIRECTION('',(1.E0,0.E0,0.E0));
#357=AXIS2_PLACEMENT_3D('',#354,#355,#356);
#359=DIRECTION('',(-1.E0,0.E0,0.E0));
#360=VECTOR('',#359,1.024E2);
#361=CARTESIAN_POINT('',(1.90265E2,2.648E0,-1.15755E2));
#362=LINE('',#361,#360);
#363=CARTESIAN_POINT('',(8.7865E1,2.648E0,-1.07755E2));
#364=DIRECTION('',(0.E0,1.E0,0.E0));
#365=DIRECTION('',(0.E0,0.E0,-1.E0));
#366=AXIS2_PLACEMENT_3D('',#363,#364,#365);
#368=DIRECTION('',(0.E0,0.E0,1.E0));
#369=VECTOR('',#368,6.1862E1);
#370=CARTESIAN_POINT('',(7.9865E1,2.648E0,-1.07755E2));
#371=LINE('',#370,#369);
#372=CARTESIAN_POINT('',(8.7865E1,2.648E0,-4.5893E1));
#373=DIRECTION('',(0.E0,1.E0,0.E0));
#374=DIRECTION('',(-1.E0,0.E0,0.E0));
#375=AXIS2_PLACEMENT_3D('',#372,#373,#374);
#377=DIRECTION('',(1.E0,0.E0,0.E0));
#378=VECTOR('',#377,1.3318984E2);
#379=CARTESIAN_POINT('',(7.247008E1,2.648E0,-3.3393E1));
#380=LINE('',#379,#378);
#381=DIRECTION('',(0.E0,-1.E0,0.E0));
#382=VECTOR('',#381,5.7086E0);
#383=CARTESIAN_POINT('',(7.247008E1,8.3566E0,-3.3393E1));
#384=LINE('',#383,#382);
#385=DIRECTION('',(0.E0,0.E0,-1.E0));
#386=VECTOR('',#385,8.8862E1);
#387=CARTESIAN_POINT('',(2.0565992E2,2.648E0,-3.3393E1));
#388=LINE('',#387,#386);
#389=DIRECTION('',(0.E0,-1.E0,0.E0));
#390=VECTOR('',#389,5.7086E0);
#391=CARTESIAN_POINT('',(2.0565992E2,8.3566E0,-3.3393E1));
#392=LINE('',#391,#390);
#393=DIRECTION('',(-1.E0,0.E0,0.E0));
#394=VECTOR('',#393,1.3318984E2);
#395=CARTESIAN_POINT('',(2.0565992E2,2.648E0,-1.22255E2));
#396=LINE('',#395,#394);
#397=DIRECTION('',(0.E0,-1.E0,0.E0));
#398=VECTOR('',#397,5.7086E0);
#399=CARTESIAN_POINT('',(2.0565992E2,8.3566E0,-1.22255E2));
#400=LINE('',#399,#398);
#401=DIRECTION('',(0.E0,0.E0,1.E0));
#402=VECTOR('',#401,8.8862E1);
#403=CARTESIAN_POINT('',(7.247008E1,2.648E0,-1.22255E2));
#404=LINE('',#403,#402);
#405=DIRECTION('',(0.E0,-1.E0,0.E0));
#406=VECTOR('',#405,5.7086E0);
#407=CARTESIAN_POINT('',(7.247008E1,8.3566E0,-1.22255E2));
#408=LINE('',#407,#406);
#409=CARTESIAN_POINT('',(5.9055E1,9.525E0,-1.21255E2));
#410=CARTESIAN_POINT('',(5.9055E1,9.525E0,-4.0893E1));
#411=VERTEX_POINT('',#409);
#412=VERTEX_POINT('',#410);
#413=CARTESIAN_POINT('',(7.3865E1,9.525E0,-2.6083E1));
#414=VERTEX_POINT('',#413);
#415=CARTESIAN_POINT('',(2.04265E2,9.525E0,-2.6083E1));
#416=VERTEX_POINT('',#415);
#417=CARTESIAN_POINT('',(2.19075E2,9.525E0,-4.0893E1));
#418=VERTEX_POINT('',#417);
#419=CARTESIAN_POINT('',(2.19075E2,9.525E0,-1.21255E2));
#420=VERTEX_POINT('',#419);
#421=CARTESIAN_POINT('',(2.04265E2,9.525E0,-1.36065E2));
#422=VERTEX_POINT('',#421);
#423=CARTESIAN_POINT('',(7.3865E1,9.525E0,-1.36065E2));
#424=VERTEX_POINT('',#423);
#425=CARTESIAN_POINT('',(7.265991512265E1,9.525E0,-1.22065E2));
#426=CARTESIAN_POINT('',(2.054700848773E2,9.525E0,-1.22065E2));
#427=VERTEX_POINT('',#425);
#428=VERTEX_POINT('',#426);
#429=CARTESIAN_POINT('',(2.054700848773E2,9.525E0,-3.3583E1));
#430=VERTEX_POINT('',#429);
#431=CARTESIAN_POINT('',(7.265991512265E1,9.525E0,-3.3583E1));
#432=VERTEX_POINT('',#431);
#433=CARTESIAN_POINT('',(5.9055E1,8.3566E0,-1.21255E2));
#434=CARTESIAN_POINT('',(5.9055E1,8.3566E0,-4.0893E1));
#435=VERTEX_POINT('',#433);
#436=VERTEX_POINT('',#434);
#437=CARTESIAN_POINT('',(7.3865E1,8.3566E0,-2.6083E1));
#438=VERTEX_POINT('',#437);
#439=CARTESIAN_POINT('',(2.04265E2,8.3566E0,-2.6083E1));
#440=VERTEX_POINT('',#439);
#441=CARTESIAN_POINT('',(2.19075E2,8.3566E0,-4.0893E1));
#442=VERTEX_POINT('',#441);
#443=CARTESIAN_POINT('',(2.19075E2,8.3566E0,-1.21255E2));
#444=VERTEX_POINT('',#443);
#445=CARTESIAN_POINT('',(2.04265E2,8.3566E0,-1.36065E2));
#446=VERTEX_POINT('',#445);
#447=CARTESIAN_POINT('',(7.3865E1,8.3566E0,-1.36065E2));
#448=VERTEX_POINT('',#447);
#449=CARTESIAN_POINT('',(7.265991512265E1,8.3566E0,-1.22065E2));
#450=CARTESIAN_POINT('',(2.054700848773E2,8.3566E0,-1.22065E2));
#451=VERTEX_POINT('',#449);
#452=VERTEX_POINT('',#450);
#453=CARTESIAN_POINT('',(2.054700848773E2,8.3566E0,-3.3583E1));
#454=VERTEX_POINT('',#453);
#455=CARTESIAN_POINT('',(7.265991512265E1,8.3566E0,-3.3583E1));
#456=VERTEX_POINT('',#455);
#457=CARTESIAN_POINT('',(6.2865E1,0.E0,-4.0893E1));
#458=CARTESIAN_POINT('',(6.2865E1,0.E0,-1.21255E2));
#459=VERTEX_POINT('',#457);
#460=VERTEX_POINT('',#458);
#461=CARTESIAN_POINT('',(7.3865E1,0.E0,-1.32255E2));
#462=VERTEX_POINT('',#461);
#463=CARTESIAN_POINT('',(2.04265E2,0.E0,-1.32255E2));
#464=VERTEX_POINT('',#463);
#465=CARTESIAN_POINT('',(2.15265E2,0.E0,-1.21255E2));
#466=VERTEX_POINT('',#465);
#467=CARTESIAN_POINT('',(2.15265E2,0.E0,-4.0893E1));
#468=VERTEX_POINT('',#467);
#469=CARTESIAN_POINT('',(2.04265E2,0.E0,-2.9893E1));
#470=VERTEX_POINT('',#469);
#471=CARTESIAN_POINT('',(7.3865E1,0.E0,-2.9893E1));
#472=VERTEX_POINT('',#471);
#473=CARTESIAN_POINT('',(6.2865E1,8.3566E0,-4.0893E1));
#474=CARTESIAN_POINT('',(6.2865E1,8.3566E0,-1.21255E2));
#475=VERTEX_POINT('',#473);
#476=VERTEX_POINT('',#474);
#477=CARTESIAN_POINT('',(7.3865E1,8.3566E0,-1.32255E2));
#478=VERTEX_POINT('',#477);
#479=CARTESIAN_POINT('',(2.04265E2,8.3566E0,-1.32255E2));
#480=VERTEX_POINT('',#479);
#481=CARTESIAN_POINT('',(2.15265E2,8.3566E0,-1.21255E2));
#482=VERTEX_POINT('',#481);
#483=CARTESIAN_POINT('',(2.15265E2,8.3566E0,-4.0893E1));
#484=VERTEX_POINT('',#483);
#485=CARTESIAN_POINT('',(2.04265E2,8.3566E0,-2.9893E1));
#486=VERTEX_POINT('',#485);
#487=CARTESIAN_POINT('',(7.3865E1,8.3566E0,-2.9893E1));
#488=VERTEX_POINT('',#487);
#489=CARTESIAN_POINT('',(7.247008E1,8.3566E0,-3.3393E1));
#490=CARTESIAN_POINT('',(2.0565992E2,8.3566E0,-3.3393E1));
#491=VERTEX_POINT('',#489);
#492=VERTEX_POINT('',#490);
#493=CARTESIAN_POINT('',(2.0565992E2,8.3566E0,-1.22255E2));
#494=VERTEX_POINT('',#493);
#495=CARTESIAN_POINT('',(7.247008E1,8.3566E0,-1.22255E2));
#496=VERTEX_POINT('',#495);
#497=CARTESIAN_POINT('',(8.7865E1,0.E0,-3.7893E1));
#498=CARTESIAN_POINT('',(1.90265E2,0.E0,-3.7893E1));
#499=VERTEX_POINT('',#497);
#500=VERTEX_POINT('',#498);
#501=CARTESIAN_POINT('',(1.98265E2,0.E0,-4.5893E1));
#502=VERTEX_POINT('',#501);
#503=CARTESIAN_POINT('',(1.98265E2,0.E0,-1.07755E2));
#504=VERTEX_POINT('',#503);
#505=CARTESIAN_POINT('',(1.90265E2,0.E0,-1.15755E2));
#506=VERTEX_POINT('',#505);
#507=CARTESIAN_POINT('',(8.7865E1,0.E0,-1.15755E2));
#508=VERTEX_POINT('',#507);
#509=CARTESIAN_POINT('',(7.9865E1,0.E0,-1.07755E2));
#510=VERTEX_POINT('',#509);
#511=CARTESIAN_POINT('',(7.9865E1,0.E0,-4.5893E1));
#512=VERTEX_POINT('',#511);
#513=CARTESIAN_POINT('',(8.7865E1,2.648E0,-3.7893E1));
#514=CARTESIAN_POINT('',(1.90265E2,2.648E0,-3.7893E1));
#515=VERTEX_POINT('',#513);
#516=VERTEX_POINT('',#514);
#517=CARTESIAN_POINT('',(1.98265E2,2.648E0,-4.5893E1));
#518=VERTEX_POINT('',#517);
#519=CARTESIAN_POINT('',(1.98265E2,2.648E0,-1.07755E2));
#520=VERTEX_POINT('',#519);
#521=CARTESIAN_POINT('',(1.90265E2,2.648E0,-1.15755E2));
#522=VERTEX_POINT('',#521);
#523=CARTESIAN_POINT('',(8.7865E1,2.648E0,-1.15755E2));
#524=VERTEX_POINT('',#523);
#525=CARTESIAN_POINT('',(7.9865E1,2.648E0,-1.07755E2));
#526=VERTEX_POINT('',#525);
#527=CARTESIAN_POINT('',(7.9865E1,2.648E0,-4.5893E1));
#528=VERTEX_POINT('',#527);
#529=CARTESIAN_POINT('',(7.247008E1,2.648E0,-3.3393E1));
#530=CARTESIAN_POINT('',(2.0565992E2,2.648E0,-3.3393E1));
#531=VERTEX_POINT('',#529);
#532=VERTEX_POINT('',#530);
#533=CARTESIAN_POINT('',(2.0565992E2,2.648E0,-1.22255E2));
#534=VERTEX_POINT('',#533);
#535=CARTESIAN_POINT('',(7.247008E1,2.648E0,-1.22255E2));
#536=VERTEX_POINT('',#535);
#537=CARTESIAN_POINT('',(1.39065E2,9.525E0,-8.1074E1));
#538=DIRECTION('',(0.E0,1.E0,0.E0));
#539=DIRECTION('',(1.E0,0.E0,0.E0));
#540=AXIS2_PLACEMENT_3D('',#537,#538,#539);
#541=PLANE('',#540);
#543=ORIENTED_EDGE('',*,*,#542,.F.);
#545=ORIENTED_EDGE('',*,*,#544,.F.);
#547=ORIENTED_EDGE('',*,*,#546,.F.);
#549=ORIENTED_EDGE('',*,*,#548,.F.);
#551=ORIENTED_EDGE('',*,*,#550,.F.);
#553=ORIENTED_EDGE('',*,*,#552,.F.);
#555=ORIENTED_EDGE('',*,*,#554,.F.);
#557=ORIENTED_EDGE('',*,*,#556,.F.);
#558=EDGE_LOOP('',(#543,#545,#547,#549,#551,#553,#555,#557));
#559=FACE_OUTER_BOUND('',#558,.F.);
#561=ORIENTED_EDGE('',*,*,#560,.F.);
#563=ORIENTED_EDGE('',*,*,#562,.F.);
#565=ORIENTED_EDGE('',*,*,#564,.F.);
#567=ORIENTED_EDGE('',*,*,#566,.F.);
#568=EDGE_LOOP('',(#561,#563,#565,#567));
#569=FACE_BOUND('',#568,.F.);
#570=ADVANCED_FACE('',(#559,#569),#541,.T.);
#571=CARTESIAN_POINT('',(5.9055E1,9.525E0,-1.21255E2));
#572=DIRECTION('',(-1.E0,0.E0,0.E0));
#573=DIRECTION('',(0.E0,0.E0,1.E0));
#574=AXIS2_PLACEMENT_3D('',#571,#572,#573);
#575=PLANE('',#574);
#576=ORIENTED_EDGE('',*,*,#542,.T.);
#578=ORIENTED_EDGE('',*,*,#577,.T.);
#580=ORIENTED_EDGE('',*,*,#579,.F.);
#582=ORIENTED_EDGE('',*,*,#581,.F.);
#583=EDGE_LOOP('',(#576,#578,#580,#582));
#584=FACE_OUTER_BOUND('',#583,.F.);
#585=ADVANCED_FACE('',(#584),#575,.T.);
#586=CARTESIAN_POINT('',(7.3865E1,9.525E0,-4.0893E1));
#587=DIRECTION('',(0.E0,1.E0,0.E0));
#588=DIRECTION('',(1.E0,0.E0,0.E0));
#589=AXIS2_PLACEMENT_3D('',#586,#587,#588);
#590=CYLINDRICAL_SURFACE('',#589,1.481E1);
#591=ORIENTED_EDGE('',*,*,#556,.T.);
#593=ORIENTED_EDGE('',*,*,#592,.T.);
#595=ORIENTED_EDGE('',*,*,#594,.F.);
#596=ORIENTED_EDGE('',*,*,#577,.F.);
#597=EDGE_LOOP('',(#591,#593,#595,#596));
#598=FACE_OUTER_BOUND('',#597,.F.);
#599=ADVANCED_FACE('',(#598),#590,.T.);
#600=CARTESIAN_POINT('',(7.3865E1,9.525E0,-2.6083E1));
#601=DIRECTION('',(0.E0,0.E0,1.E0));
#602=DIRECTION('',(1.E0,0.E0,0.E0));
#603=AXIS2_PLACEMENT_3D('',#600,#601,#602);
#604=PLANE('',#603);
#605=ORIENTED_EDGE('',*,*,#554,.T.);
#607=ORIENTED_EDGE('',*,*,#606,.T.);
#609=ORIENTED_EDGE('',*,*,#608,.F.);
#610=ORIENTED_EDGE('',*,*,#592,.F.);
#611=EDGE_LOOP('',(#605,#607,#609,#610));
#612=FACE_OUTER_BOUND('',#611,.F.);
#613=ADVANCED_FACE('',(#612),#604,.T.);
#614=CARTESIAN_POINT('',(2.04265E2,9.525E0,-4.0893E1));
#615=DIRECTION('',(0.E0,1.E0,0.E0));
#616=DIRECTION('',(1.E0,0.E0,0.E0));
#617=AXIS2_PLACEMENT_3D('',#614,#615,#616);
#618=CYLINDRICAL_SURFACE('',#617,1.481E1);
#619=ORIENTED_EDGE('',*,*,#552,.T.);
#621=ORIENTED_EDGE('',*,*,#620,.T.);
#623=ORIENTED_EDGE('',*,*,#622,.F.);
#624=ORIENTED_EDGE('',*,*,#606,.F.);
#625=EDGE_LOOP('',(#619,#621,#623,#624));
#626=FACE_OUTER_BOUND('',#625,.F.);
#627=ADVANCED_FACE('',(#626),#618,.T.);
#628=CARTESIAN_POINT('',(2.19075E2,9.525E0,-4.0893E1));
#629=DIRECTION('',(1.E0,0.E0,0.E0));
#630=DIRECTION('',(0.E0,0.E0,-1.E0));
#631=AXIS2_PLACEMENT_3D('',#628,#629,#630);
#632=PLANE('',#631);
#633=ORIENTED_EDGE('',*,*,#550,.T.);
#635=ORIENTED_EDGE('',*,*,#634,.T.);
#637=ORIENTED_EDGE('',*,*,#636,.F.);
#638=ORIENTED_EDGE('',*,*,#620,.F.);
#639=EDGE_LOOP('',(#633,#635,#637,#638));
#640=FACE_OUTER_BOUND('',#639,.F.);
#641=ADVANCED_FACE('',(#640),#632,.T.);
#642=CARTESIAN_POINT('',(2.04265E2,9.525E0,-1.21255E2));
#643=DIRECTION('',(0.E0,1.E0,0.E0));
#644=DIRECTION('',(1.E0,0.E0,0.E0));
#645=AXIS2_PLACEMENT_3D('',#642,#643,#644);
#646=CYLINDRICAL_SURFACE('',#645,1.481E1);
#647=ORIENTED_EDGE('',*,*,#548,.T.);
#649=ORIENTED_EDGE('',*,*,#648,.T.);
#651=ORIENTED_EDGE('',*,*,#650,.F.);
#652=ORIENTED_EDGE('',*,*,#634,.F.);
#653=EDGE_LOOP('',(#647,#649,#651,#652));
#654=FACE_OUTER_BOUND('',#653,.F.);
#655=ADVANCED_FACE('',(#654),#646,.T.);
#656=CARTESIAN_POINT('',(2.04265E2,9.525E0,-1.36065E2));
#657=DIRECTION('',(0.E0,0.E0,-1.E0));
#658=DIRECTION('',(-1.E0,0.E0,0.E0));
#659=AXIS2_PLACEMENT_3D('',#656,#657,#658);
#660=PLANE('',#659);
#661=ORIENTED_EDGE('',*,*,#546,.T.);
#663=ORIENTED_EDGE('',*,*,#662,.T.);
#665=ORIENTED_EDGE('',*,*,#664,.F.);
#666=ORIENTED_EDGE('',*,*,#648,.F.);
#667=EDGE_LOOP('',(#661,#663,#665,#666));
#668=FACE_OUTER_BOUND('',#667,.F.);
#669=ADVANCED_FACE('',(#668),#660,.T.);
#670=CARTESIAN_POINT('',(7.3865E1,9.525E0,-1.21255E2));
#671=DIRECTION('',(0.E0,1.E0,0.E0));
#672=DIRECTION('',(1.E0,0.E0,0.E0));
#673=AXIS2_PLACEMENT_3D('',#670,#671,#672);
#674=CYLINDRICAL_SURFACE('',#673,1.481E1);
#675=ORIENTED_EDGE('',*,*,#544,.T.);
#676=ORIENTED_EDGE('',*,*,#581,.T.);
#678=ORIENTED_EDGE('',*,*,#677,.F.);
#679=ORIENTED_EDGE('',*,*,#662,.F.);
#680=EDGE_LOOP('',(#675,#676,#678,#679));
#681=FACE_OUTER_BOUND('',#680,.F.);
#682=ADVANCED_FACE('',(#681),#674,.T.);
#683=CARTESIAN_POINT('',(1.39065E2,8.3566E0,-8.1074E1));
#684=DIRECTION('',(0.E0,1.E0,0.E0));
#685=DIRECTION('',(1.E0,0.E0,0.E0));
#686=AXIS2_PLACEMENT_3D('',#683,#684,#685);
#687=PLANE('',#686);
#688=ORIENTED_EDGE('',*,*,#579,.T.);
#689=ORIENTED_EDGE('',*,*,#594,.T.);
#690=ORIENTED_EDGE('',*,*,#608,.T.);
#691=ORIENTED_EDGE('',*,*,#622,.T.);
#692=ORIENTED_EDGE('',*,*,#636,.T.);
#693=ORIENTED_EDGE('',*,*,#650,.T.);
#694=ORIENTED_EDGE('',*,*,#664,.T.);
#695=ORIENTED_EDGE('',*,*,#677,.T.);
#696=EDGE_LOOP('',(#688,#689,#690,#691,#692,#693,#694,#695));
#697=FACE_OUTER_BOUND('',#696,.F.);
#699=ORIENTED_EDGE('',*,*,#698,.T.);
#701=ORIENTED_EDGE('',*,*,#700,.T.);
#703=ORIENTED_EDGE('',*,*,#702,.T.);
#705=ORIENTED_EDGE('',*,*,#704,.T.);
#707=ORIENTED_EDGE('',*,*,#706,.T.);
#709=ORIENTED_EDGE('',*,*,#708,.T.);
#711=ORIENTED_EDGE('',*,*,#710,.T.);
#713=ORIENTED_EDGE('',*,*,#712,.T.);
#714=EDGE_LOOP('',(#699,#701,#703,#705,#707,#709,#711,#713));
#715=FACE_BOUND('',#714,.F.);
#716=ADVANCED_FACE('',(#697,#715),#687,.F.);
#717=CARTESIAN_POINT('',(1.39065E2,8.3566E0,-8.1074E1));
#718=DIRECTION('',(0.E0,1.E0,0.E0));
#719=DIRECTION('',(1.E0,0.E0,0.E0));
#720=AXIS2_PLACEMENT_3D('',#717,#718,#719);
#721=PLANE('',#720);
#723=ORIENTED_EDGE('',*,*,#722,.T.);
#725=ORIENTED_EDGE('',*,*,#724,.T.);
#727=ORIENTED_EDGE('',*,*,#726,.T.);
#729=ORIENTED_EDGE('',*,*,#728,.T.);
#730=EDGE_LOOP('',(#723,#725,#727,#729));
#731=FACE_OUTER_BOUND('',#730,.F.);
#733=ORIENTED_EDGE('',*,*,#732,.T.);
#735=ORIENTED_EDGE('',*,*,#734,.T.);
#737=ORIENTED_EDGE('',*,*,#736,.T.);
#739=ORIENTED_EDGE('',*,*,#738,.T.);
#740=EDGE_LOOP('',(#733,#735,#737,#739));
#741=FACE_BOUND('',#740,.F.);
#742=ADVANCED_FACE('',(#731,#741),#721,.F.);
#743=CARTESIAN_POINT('',(7.265991512265E1,9.525E0,-1.22065E2));
#744=DIRECTION('',(0.E0,0.E0,1.E0));
#745=DIRECTION('',(1.E0,0.E0,0.E0));
#746=AXIS2_PLACEMENT_3D('',#743,#744,#745);
#747=PLANE('',#746);
#748=ORIENTED_EDGE('',*,*,#560,.T.);
#750=ORIENTED_EDGE('',*,*,#749,.T.);
#751=ORIENTED_EDGE('',*,*,#732,.F.);
#753=ORIENTED_EDGE('',*,*,#752,.F.);
#754=EDGE_LOOP('',(#748,#750,#751,#753));
#755=FACE_OUTER_BOUND('',#754,.F.);
#756=ADVANCED_FACE('',(#755),#747,.T.);
#757=CARTESIAN_POINT('',(2.054700848773E2,9.525E0,-1.22065E2));
#758=DIRECTION('',(-1.E0,0.E0,0.E0));
#759=DIRECTION('',(0.E0,0.E0,1.E0));
#760=AXIS2_PLACEMENT_3D('',#757,#758,#759);
#761=PLANE('',#760);
#762=ORIENTED_EDGE('',*,*,#566,.T.);
#764=ORIENTED_EDGE('',*,*,#763,.T.);
#765=ORIENTED_EDGE('',*,*,#734,.F.);
#766=ORIENTED_EDGE('',*,*,#749,.F.);
#767=EDGE_LOOP('',(#762,#764,#765,#766));
#768=FACE_OUTER_BOUND('',#767,.F.);
#769=ADVANCED_FACE('',(#768),#761,.T.);
#770=CARTESIAN_POINT('',(2.054700848773E2,9.525E0,-3.3583E1));
#771=DIRECTION('',(0.E0,0.E0,-1.E0));
#772=DIRECTION('',(-1.E0,0.E0,0.E0));
#773=AXIS2_PLACEMENT_3D('',#770,#771,#772);
#774=PLANE('',#773);
#775=ORIENTED_EDGE('',*,*,#564,.T.);
#777=ORIENTED_EDGE('',*,*,#776,.T.);
#778=ORIENTED_EDGE('',*,*,#736,.F.);
#779=ORIENTED_EDGE('',*,*,#763,.F.);
#780=EDGE_LOOP('',(#775,#777,#778,#779));
#781=FACE_OUTER_BOUND('',#780,.F.);
#782=ADVANCED_FACE('',(#781),#774,.T.);
#783=CARTESIAN_POINT('',(7.265991512265E1,9.525E0,-3.3583E1));
#784=DIRECTION('',(1.E0,0.E0,0.E0));
#785=DIRECTION('',(0.E0,0.E0,-1.E0));
#786=AXIS2_PLACEMENT_3D('',#783,#784,#785);
#787=PLANE('',#786);
#788=ORIENTED_EDGE('',*,*,#562,.T.);
#789=ORIENTED_EDGE('',*,*,#752,.T.);
#790=ORIENTED_EDGE('',*,*,#738,.F.);
#791=ORIENTED_EDGE('',*,*,#776,.F.);
#792=EDGE_LOOP('',(#788,#789,#790,#791));
#793=FACE_OUTER_BOUND('',#792,.F.);
#794=ADVANCED_FACE('',(#793),#787,.T.);
#795=CARTESIAN_POINT('',(6.2865E1,8.3566E0,-4.0893E1));
#796=DIRECTION('',(-1.E0,0.E0,0.E0));
#797=DIRECTION('',(0.E0,0.E0,-1.E0));
#798=AXIS2_PLACEMENT_3D('',#795,#796,#797);
#799=PLANE('',#798);
#800=ORIENTED_EDGE('',*,*,#698,.F.);
#802=ORIENTED_EDGE('',*,*,#801,.T.);
#804=ORIENTED_EDGE('',*,*,#803,.T.);
#806=ORIENTED_EDGE('',*,*,#805,.F.);
#807=EDGE_LOOP('',(#800,#802,#804,#806));
#808=FACE_OUTER_BOUND('',#807,.F.);
#809=ADVANCED_FACE('',(#808),#799,.T.);
#810=CARTESIAN_POINT('',(7.3865E1,8.3566E0,-4.0893E1));
#811=DIRECTION('',(0.E0,-1.E0,0.E0));
#812=DIRECTION('',(1.E0,0.E0,0.E0));
#813=AXIS2_PLACEMENT_3D('',#810,#811,#812);
#814=CYLINDRICAL_SURFACE('',#813,1.1E1);
#815=ORIENTED_EDGE('',*,*,#712,.F.);
#817=ORIENTED_EDGE('',*,*,#816,.T.);
#819=ORIENTED_EDGE('',*,*,#818,.T.);
#820=ORIENTED_EDGE('',*,*,#801,.F.);
#821=EDGE_LOOP('',(#815,#817,#819,#820));
#822=FACE_OUTER_BOUND('',#821,.F.);
#823=ADVANCED_FACE('',(#822),#814,.T.);
#824=CARTESIAN_POINT('',(2.04265E2,8.3566E0,-2.9893E1));
#825=DIRECTION('',(0.E0,0.E0,1.E0));
#826=DIRECTION('',(-1.E0,0.E0,0.E0));
#827=AXIS2_PLACEMENT_3D('',#824,#825,#826);
#828=PLANE('',#827);
#829=ORIENTED_EDGE('',*,*,#710,.F.);
#831=ORIENTED_EDGE('',*,*,#830,.T.);
#833=ORIENTED_EDGE('',*,*,#832,.T.);
#834=ORIENTED_EDGE('',*,*,#816,.F.);
#835=EDGE_LOOP('',(#829,#831,#833,#834));
#836=FACE_OUTER_BOUND('',#835,.F.);
#837=ADVANCED_FACE('',(#836),#828,.T.);
#838=CARTESIAN_POINT('',(2.04265E2,8.3566E0,-4.0893E1));
#839=DIRECTION('',(0.E0,-1.E0,0.E0));
#840=DIRECTION('',(1.E0,0.E0,0.E0));
#841=AXIS2_PLACEMENT_3D('',#838,#839,#840);
#842=CYLINDRICAL_SURFACE('',#841,1.1E1);
#843=ORIENTED_EDGE('',*,*,#708,.F.);
#845=ORIENTED_EDGE('',*,*,#844,.T.);
#847=ORIENTED_EDGE('',*,*,#846,.T.);
#848=ORIENTED_EDGE('',*,*,#830,.F.);
#849=EDGE_LOOP('',(#843,#845,#847,#848));
#850=FACE_OUTER_BOUND('',#849,.F.);
#851=ADVANCED_FACE('',(#850),#842,.T.);
#852=CARTESIAN_POINT('',(2.15265E2,8.3566E0,-1.21255E2));
#853=DIRECTION('',(1.E0,0.E0,0.E0));
#854=DIRECTION('',(0.E0,0.E0,1.E0));
#855=AXIS2_PLACEMENT_3D('',#852,#853,#854);
#856=PLANE('',#855);
#857=ORIENTED_EDGE('',*,*,#706,.F.);
#859=ORIENTED_EDGE('',*,*,#858,.T.);
#861=ORIENTED_EDGE('',*,*,#860,.T.);
#862=ORIENTED_EDGE('',*,*,#844,.F.);
#863=EDGE_LOOP('',(#857,#859,#861,#862));
#864=FACE_OUTER_BOUND('',#863,.F.);
#865=ADVANCED_FACE('',(#864),#856,.T.);
#866=CARTESIAN_POINT('',(2.04265E2,8.3566E0,-1.21255E2));
#867=DIRECTION('',(0.E0,-1.E0,0.E0));
#868=DIRECTION('',(1.E0,0.E0,0.E0));
#869=AXIS2_PLACEMENT_3D('',#866,#867,#868);
#870=CYLINDRICAL_SURFACE('',#869,1.1E1);
#871=ORIENTED_EDGE('',*,*,#704,.F.);
#873=ORIENTED_EDGE('',*,*,#872,.T.);
#875=ORIENTED_EDGE('',*,*,#874,.T.);
#876=ORIENTED_EDGE('',*,*,#858,.F.);
#877=EDGE_LOOP('',(#871,#873,#875,#876));
#878=FACE_OUTER_BOUND('',#877,.F.);
#879=ADVANCED_FACE('',(#878),#870,.T.);
#880=CARTESIAN_POINT('',(7.3865E1,8.3566E0,-1.32255E2));
#881=DIRECTION('',(0.E0,0.E0,-1.E0));
#882=DIRECTION('',(1.E0,0.E0,0.E0));
#883=AXIS2_PLACEMENT_3D('',#880,#881,#882);
#884=PLANE('',#883);
#885=ORIENTED_EDGE('',*,*,#702,.F.);
#887=ORIENTED_EDGE('',*,*,#886,.T.);
#889=ORIENTED_EDGE('',*,*,#888,.T.);
#890=ORIENTED_EDGE('',*,*,#872,.F.);
#891=EDGE_LOOP('',(#885,#887,#889,#890));
#892=FACE_OUTER_BOUND('',#891,.F.);
#893=ADVANCED_FACE('',(#892),#884,.T.);
#894=CARTESIAN_POINT('',(7.3865E1,8.3566E0,-1.21255E2));
#895=DIRECTION('',(0.E0,-1.E0,0.E0));
#896=DIRECTION('',(1.E0,0.E0,0.E0));
#897=AXIS2_PLACEMENT_3D('',#894,#895,#896);
#898=CYLINDRICAL_SURFACE('',#897,1.1E1);
#899=ORIENTED_EDGE('',*,*,#700,.F.);
#900=ORIENTED_EDGE('',*,*,#805,.T.);
#902=ORIENTED_EDGE('',*,*,#901,.T.);
#903=ORIENTED_EDGE('',*,*,#886,.F.);
#904=EDGE_LOOP('',(#899,#900,#902,#903));
#905=FACE_OUTER_BOUND('',#904,.F.);
#906=ADVANCED_FACE('',(#905),#898,.T.);
#907=CARTESIAN_POINT('',(1.39065E2,0.E0,-8.1074E1));
#908=DIRECTION('',(0.E0,1.E0,0.E0));
#909=DIRECTION('',(1.E0,0.E0,0.E0));
#910=AXIS2_PLACEMENT_3D('',#907,#908,#909);
#911=PLANE('',#910);
#912=ORIENTED_EDGE('',*,*,#803,.F.);
#913=ORIENTED_EDGE('',*,*,#818,.F.);
#914=ORIENTED_EDGE('',*,*,#832,.F.);
#915=ORIENTED_EDGE('',*,*,#846,.F.);
#916=ORIENTED_EDGE('',*,*,#860,.F.);
#917=ORIENTED_EDGE('',*,*,#874,.F.);
#918=ORIENTED_EDGE('',*,*,#888,.F.);
#919=ORIENTED_EDGE('',*,*,#901,.F.);
#920=EDGE_LOOP('',(#912,#913,#914,#915,#916,#917,#918,#919));
#921=FACE_OUTER_BOUND('',#920,.F.);
#923=ORIENTED_EDGE('',*,*,#922,.F.);
#925=ORIENTED_EDGE('',*,*,#924,.F.);
#927=ORIENTED_EDGE('',*,*,#926,.F.);
#929=ORIENTED_EDGE('',*,*,#928,.F.);
#931=ORIENTED_EDGE('',*,*,#930,.F.);
#933=ORIENTED_EDGE('',*,*,#932,.F.);
#935=ORIENTED_EDGE('',*,*,#934,.F.);
#937=ORIENTED_EDGE('',*,*,#936,.F.);
#938=EDGE_LOOP('',(#923,#925,#927,#929,#931,#933,#935,#937));
#939=FACE_BOUND('',#938,.F.);
#940=ADVANCED_FACE('',(#921,#939),#911,.F.);
#941=CARTESIAN_POINT('',(8.7865E1,0.E0,-3.7893E1));
#942=DIRECTION('',(0.E0,0.E0,-1.E0));
#943=DIRECTION('',(1.E0,0.E0,0.E0));
#944=AXIS2_PLACEMENT_3D('',#941,#942,#943);
#945=PLANE('',#944);
#946=ORIENTED_EDGE('',*,*,#922,.T.);
#948=ORIENTED_EDGE('',*,*,#947,.T.);
#950=ORIENTED_EDGE('',*,*,#949,.F.);
#952=ORIENTED_EDGE('',*,*,#951,.F.);
#953=EDGE_LOOP('',(#946,#948,#950,#952));
#954=FACE_OUTER_BOUND('',#953,.F.);
#955=ADVANCED_FACE('',(#954),#945,.T.);
#956=CARTESIAN_POINT('',(1.90265E2,0.E0,-4.5893E1));
#957=DIRECTION('',(0.E0,-1.E0,0.E0));
#958=DIRECTION('',(1.E0,0.E0,0.E0));
#959=AXIS2_PLACEMENT_3D('',#956,#957,#958);
#960=CYLINDRICAL_SURFACE('',#959,8.E0);
#961=ORIENTED_EDGE('',*,*,#936,.T.);
#963=ORIENTED_EDGE('',*,*,#962,.T.);
#965=ORIENTED_EDGE('',*,*,#964,.F.);
#966=ORIENTED_EDGE('',*,*,#947,.F.);
#967=EDGE_LOOP('',(#961,#963,#965,#966));
#968=FACE_OUTER_BOUND('',#967,.F.);
#969=ADVANCED_FACE('',(#968),#960,.F.);
#970=CARTESIAN_POINT('',(1.98265E2,0.E0,-4.5893E1));
#971=DIRECTION('',(-1.E0,0.E0,0.E0));
#972=DIRECTION('',(0.E0,0.E0,-1.E0));
#973=AXIS2_PLACEMENT_3D('',#970,#971,#972);
#974=PLANE('',#973);
#975=ORIENTED_EDGE('',*,*,#934,.T.);
#977=ORIENTED_EDGE('',*,*,#976,.T.);
#979=ORIENTED_EDGE('',*,*,#978,.F.);
#980=ORIENTED_EDGE('',*,*,#962,.F.);
#981=EDGE_LOOP('',(#975,#977,#979,#980));
#982=FACE_OUTER_BOUND('',#981,.F.);
#983=ADVANCED_FACE('',(#982),#974,.T.);
#984=CARTESIAN_POINT('',(1.90265E2,0.E0,-1.07755E2));
#985=DIRECTION('',(0.E0,-1.E0,0.E0));
#986=DIRECTION('',(1.E0,0.E0,0.E0));
#987=AXIS2_PLACEMENT_3D('',#984,#985,#986);
#988=CYLINDRICAL_SURFACE('',#987,8.E0);
#989=ORIENTED_EDGE('',*,*,#932,.T.);
#991=ORIENTED_EDGE('',*,*,#990,.T.);
#993=ORIENTED_EDGE('',*,*,#992,.F.);
#994=ORIENTED_EDGE('',*,*,#976,.F.);
#995=EDGE_LOOP('',(#989,#991,#993,#994));
#996=FACE_OUTER_BOUND('',#995,.F.);
#997=ADVANCED_FACE('',(#996),#988,.F.);
#998=CARTESIAN_POINT('',(1.90265E2,0.E0,-1.15755E2));
#999=DIRECTION('',(0.E0,0.E0,1.E0));
#1000=DIRECTION('',(-1.E0,0.E0,0.E0));
#1001=AXIS2_PLACEMENT_3D('',#998,#999,#1000);
#1002=PLANE('',#1001);
#1003=ORIENTED_EDGE('',*,*,#930,.T.);
#1005=ORIENTED_EDGE('',*,*,#1004,.T.);
#1007=ORIENTED_EDGE('',*,*,#1006,.F.);
#1008=ORIENTED_EDGE('',*,*,#990,.F.);
#1009=EDGE_LOOP('',(#1003,#1005,#1007,#1008));
#1010=FACE_OUTER_BOUND('',#1009,.F.);
#1011=ADVANCED_FACE('',(#1010),#1002,.T.);
#1012=CARTESIAN_POINT('',(8.7865E1,0.E0,-1.07755E2));
#1013=DIRECTION('',(0.E0,-1.E0,0.E0));
#1014=DIRECTION('',(1.E0,0.E0,0.E0));
#1015=AXIS2_PLACEMENT_3D('',#1012,#1013,#1014);
#1016=CYLINDRICAL_SURFACE('',#1015,8.E0);
#1017=ORIENTED_EDGE('',*,*,#928,.T.);
#1019=ORIENTED_EDGE('',*,*,#1018,.T.);
#1021=ORIENTED_EDGE('',*,*,#1020,.F.);
#1022=ORIENTED_EDGE('',*,*,#1004,.F.);
#1023=EDGE_LOOP('',(#1017,#1019,#1021,#1022));
#1024=FACE_OUTER_BOUND('',#1023,.F.);
#1025=ADVANCED_FACE('',(#1024),#1016,.F.);
#1026=CARTESIAN_POINT('',(7.9865E1,0.E0,-1.07755E2));
#1027=DIRECTION('',(1.E0,0.E0,0.E0));
#1028=DIRECTION('',(0.E0,0.E0,1.E0));
#1029=AXIS2_PLACEMENT_3D('',#1026,#1027,#1028);
#1030=PLANE('',#1029);
#1031=ORIENTED_EDGE('',*,*,#926,.T.);
#1033=ORIENTED_EDGE('',*,*,#1032,.T.);
#1035=ORIENTED_EDGE('',*,*,#1034,.F.);
#1036=ORIENTED_EDGE('',*,*,#1018,.F.);
#1037=EDGE_LOOP('',(#1031,#1033,#1035,#1036));
#1038=FACE_OUTER_BOUND('',#1037,.F.);
#1039=ADVANCED_FACE('',(#1038),#1030,.T.);
#1040=CARTESIAN_POINT('',(8.7865E1,0.E0,-4.5893E1));
#1041=DIRECTION('',(0.E0,-1.E0,0.E0));
#1042=DIRECTION('',(1.E0,0.E0,0.E0));
#1043=AXIS2_PLACEMENT_3D('',#1040,#1041,#1042);
#1044=CYLINDRICAL_SURFACE('',#1043,8.E0);
#1045=ORIENTED_EDGE('',*,*,#924,.T.);
#1046=ORIENTED_EDGE('',*,*,#951,.T.);
#1048=ORIENTED_EDGE('',*,*,#1047,.F.);
#1049=ORIENTED_EDGE('',*,*,#1032,.F.);
#1050=EDGE_LOOP('',(#1045,#1046,#1048,#1049));
#1051=FACE_OUTER_BOUND('',#1050,.F.);
#1052=ADVANCED_FACE('',(#1051),#1044,.F.);
#1053=CARTESIAN_POINT('',(0.E0,2.648E0,0.E0));
#1054=DIRECTION('',(0.E0,-1.E0,0.E0));
#1055=DIRECTION('',(1.E0,0.E0,0.E0));
#1056=AXIS2_PLACEMENT_3D('',#1053,#1054,#1055);
#1057=PLANE('',#1056);
#1059=ORIENTED_EDGE('',*,*,#1058,.F.);
#1061=ORIENTED_EDGE('',*,*,#1060,.F.);
#1063=ORIENTED_EDGE('',*,*,#1062,.F.);
#1065=ORIENTED_EDGE('',*,*,#1064,.F.);
#1066=EDGE_LOOP('',(#1059,#1061,#1063,#1065));
#1067=FACE_OUTER_BOUND('',#1066,.F.);
#1068=ORIENTED_EDGE('',*,*,#949,.T.);
#1069=ORIENTED_EDGE('',*,*,#964,.T.);
#1070=ORIENTED_EDGE('',*,*,#978,.T.);
#1071=ORIENTED_EDGE('',*,*,#992,.T.);
#1072=ORIENTED_EDGE('',*,*,#1006,.T.);
#1073=ORIENTED_EDGE('',*,*,#1020,.T.);
#1074=ORIENTED_EDGE('',*,*,#1034,.T.);
#1075=ORIENTED_EDGE('',*,*,#1047,.T.);
#1076=EDGE_LOOP('',(#1068,#1069,#1070,#1071,#1072,#1073,#1074,#1075));
#1077=FACE_BOUND('',#1076,.F.);
#1078=ADVANCED_FACE('',(#1067,#1077),#1057,.F.);
#1079=CARTESIAN_POINT('',(7.247008E1,8.3566E0,-3.3393E1));
#1080=DIRECTION('',(0.E0,0.E0,-1.E0));
#1081=DIRECTION('',(1.E0,0.E0,0.E0));
#1082=AXIS2_PLACEMENT_3D('',#1079,#1080,#1081);
#1083=PLANE('',#1082);
#1084=ORIENTED_EDGE('',*,*,#1058,.T.);
#1086=ORIENTED_EDGE('',*,*,#1085,.F.);
#1087=ORIENTED_EDGE('',*,*,#722,.F.);
#1089=ORIENTED_EDGE('',*,*,#1088,.T.);
#1090=EDGE_LOOP('',(#1084,#1086,#1087,#1089));
#1091=FACE_OUTER_BOUND('',#1090,.F.);
#1092=ADVANCED_FACE('',(#1091),#1083,.T.);
#1093=CARTESIAN_POINT('',(2.0565992E2,8.3566E0,-3.3393E1));
#1094=DIRECTION('',(-1.E0,0.E0,0.E0));
#1095=DIRECTION('',(0.E0,0.E0,-1.E0));
#1096=AXIS2_PLACEMENT_3D('',#1093,#1094,#1095);
#1097=PLANE('',#1096);
#1098=ORIENTED_EDGE('',*,*,#1064,.T.);
#1100=ORIENTED_EDGE('',*,*,#1099,.F.);
#1101=ORIENTED_EDGE('',*,*,#724,.F.);
#1102=ORIENTED_EDGE('',*,*,#1085,.T.);
#1103=EDGE_LOOP('',(#1098,#1100,#1101,#1102));
#1104=FACE_OUTER_BOUND('',#1103,.F.);
#1105=ADVANCED_FACE('',(#1104),#1097,.T.);
#1106=CARTESIAN_POINT('',(2.0565992E2,8.3566E0,-1.22255E2));
#1107=DIRECTION('',(0.E0,0.E0,1.E0));
#1108=DIRECTION('',(-1.E0,0.E0,0.E0));
#1109=AXIS2_PLACEMENT_3D('',#1106,#1107,#1108);
#1110=PLANE('',#1109);
#1111=ORIENTED_EDGE('',*,*,#1062,.T.);
#1113=ORIENTED_EDGE('',*,*,#1112,.F.);
#1114=ORIENTED_EDGE('',*,*,#726,.F.);
#1115=ORIENTED_EDGE('',*,*,#1099,.T.);
#1116=EDGE_LOOP('',(#1111,#1113,#1114,#1115));
#1117=FACE_OUTER_BOUND('',#1116,.F.);
#1118=ADVANCED_FACE('',(#1117),#1110,.T.);
#1119=CARTESIAN_POINT('',(7.247008E1,8.3566E0,-1.22255E2));
#1120=DIRECTION('',(1.E0,0.E0,0.E0));
#1121=DIRECTION('',(0.E0,0.E0,1.E0));
#1122=AXIS2_PLACEMENT_3D('',#1119,#1120,#1121);
#1123=PLANE('',#1122);
#1124=ORIENTED_EDGE('',*,*,#1060,.T.);
#1125=ORIENTED_EDGE('',*,*,#1088,.F.);
#1126=ORIENTED_EDGE('',*,*,#728,.F.);
#1127=ORIENTED_EDGE('',*,*,#1112,.T.);
#1128=EDGE_LOOP('',(#1124,#1125,#1126,#1127));
#1129=FACE_OUTER_BOUND('',#1128,.F.);
#1130=ADVANCED_FACE('',(#1129),#1123,.T.);
#1131=CLOSED_SHELL('',(#570,#585,#599,#613,#627,#641,#655,#669,#682,#716,#742,
#756,#769,#782,#794,#809,#823,#837,#851,#865,#879,#893,#906,#940,#955,#969,#983,
#997,#1011,#1025,#1039,#1052,#1078,#1092,#1105,#1118,#1130));
#1132=MANIFOLD_SOLID_BREP('',#1131);
#1134=DIMENSIONAL_EXPONENTS(0.E0,0.E0,0.E0,0.E0,0.E0,0.E0,0.E0);
#1136=PLANE_ANGLE_MEASURE_WITH_UNIT(PLANE_ANGLE_MEASURE(1.745329251994E-2),
#1135);
#1137=(CONVERSION_BASED_UNIT('DEGREE',#1136)NAMED_UNIT(*)PLANE_ANGLE_UNIT());
#1139=UNCERTAINTY_MEASURE_WITH_UNIT(LENGTH_MEASURE(1.943968697180E-2),#1133,
'closure',
'Maximum model space distance between geometric entities at asserted connectivities');
#1140=(GEOMETRIC_REPRESENTATION_CONTEXT(3)GLOBAL_UNCERTAINTY_ASSIGNED_CONTEXT((
#1139))GLOBAL_UNIT_ASSIGNED_CONTEXT((#1133,#1137,#1138))REPRESENTATION_CONTEXT(
'ID1','3'));
#1142=APPLICATION_CONTEXT(
'CONFIGURATION CONTROLLED 3D DESIGNS OF MECHANICAL PARTS AND ASSEMBLIES');
#1143=APPLICATION_PROTOCOL_DEFINITION('international standard',
'config_control_design',1994,#1142);
#1144=DESIGN_CONTEXT('',#1142,'design');
#1145=MECHANICAL_CONTEXT('',#1142,'mechanical');
#1146=PRODUCT('ZEISS_STAND_V4','ZEISS_STAND_V4','NOT SPECIFIED',(#1145));
#1147=PRODUCT_DEFINITION_FORMATION_WITH_SPECIFIED_SOURCE('7','LAST_VERSION',
#1146,.MADE.);
#1151=PRODUCT_CATEGORY('part','');
#1152=PRODUCT_RELATED_PRODUCT_CATEGORY('detail','',(#1146));
#1153=PRODUCT_CATEGORY_RELATIONSHIP('','',#1151,#1152);
#1154=SECURITY_CLASSIFICATION_LEVEL('unclassified');
#1155=SECURITY_CLASSIFICATION('','',#1154);
#1156=CC_DESIGN_SECURITY_CLASSIFICATION(#1155,(#1147));
#1157=APPROVAL_STATUS('approved');
#1158=APPROVAL(#1157,'');
#1159=CC_DESIGN_APPROVAL(#1158,(#1155,#1147,#1148));
#1160=CALENDAR_DATE(119,14,4);
#1161=COORDINATED_UNIVERSAL_TIME_OFFSET(4,0,.BEHIND.);
#1162=LOCAL_TIME(15,38,3.E1,#1161);
#1163=DATE_AND_TIME(#1160,#1162);
#1164=APPROVAL_DATE_TIME(#1163,#1158);
#1165=DATE_TIME_ROLE('creation_date');
#1166=CC_DESIGN_DATE_AND_TIME_ASSIGNMENT(#1163,#1165,(#1148));
#1167=DATE_TIME_ROLE('classification_date');
#1168=CC_DESIGN_DATE_AND_TIME_ASSIGNMENT(#1163,#1167,(#1155));
#1169=PERSON('UNSPECIFIED','UNSPECIFIED',$,$,$,$);
#1170=ORGANIZATION('UNSPECIFIED','UNSPECIFIED','UNSPECIFIED');
#1171=PERSON_AND_ORGANIZATION(#1169,#1170);
#1172=APPROVAL_ROLE('approver');
#1173=APPROVAL_PERSON_ORGANIZATION(#1171,#1158,#1172);
#1174=PERSON_AND_ORGANIZATION_ROLE('creator');
#1175=CC_DESIGN_PERSON_AND_ORGANIZATION_ASSIGNMENT(#1171,#1174,(#1147,#1148));
#1176=PERSON_AND_ORGANIZATION_ROLE('design_supplier');
#1177=CC_DESIGN_PERSON_AND_ORGANIZATION_ASSIGNMENT(#1171,#1176,(#1147));
#1178=PERSON_AND_ORGANIZATION_ROLE('classification_officer');
#1179=CC_DESIGN_PERSON_AND_ORGANIZATION_ASSIGNMENT(#1171,#1178,(#1155));
#1180=PERSON_AND_ORGANIZATION_ROLE('design_owner');
#1181=CC_DESIGN_PERSON_AND_ORGANIZATION_ASSIGNMENT(#1171,#1180,(#1146));
#9=CIRCLE('',#8,1.481E1);
#18=CIRCLE('',#17,1.481E1);
#27=CIRCLE('',#26,1.481E1);
#36=CIRCLE('',#35,1.481E1);
#93=CIRCLE('',#92,1.481E1);
#102=CIRCLE('',#101,1.481E1);
#111=CIRCLE('',#110,1.481E1);
#120=CIRCLE('',#119,1.481E1);
#145=CIRCLE('',#144,1.1E1);
#154=CIRCLE('',#153,1.1E1);
#163=CIRCLE('',#162,1.1E1);
#172=CIRCLE('',#171,1.1E1);
#245=CIRCLE('',#244,8.E0);
#254=CIRCLE('',#253,8.E0);
#263=CIRCLE('',#262,8.E0);
#272=CIRCLE('',#271,8.E0);
#281=CIRCLE('',#280,1.1E1);
#290=CIRCLE('',#289,1.1E1);
#299=CIRCLE('',#298,1.1E1);
#308=CIRCLE('',#307,1.1E1);
#349=CIRCLE('',#348,8.E0);
#358=CIRCLE('',#357,8.E0);
#367=CIRCLE('',#366,8.E0);
#376=CIRCLE('',#375,8.E0);
#542=EDGE_CURVE('',#411,#412,#4,.T.);
#544=EDGE_CURVE('',#424,#411,#9,.T.);
#546=EDGE_CURVE('',#422,#424,#13,.T.);
#548=EDGE_CURVE('',#420,#422,#18,.T.);
#550=EDGE_CURVE('',#418,#420,#22,.T.);
#552=EDGE_CURVE('',#416,#418,#27,.T.);
#554=EDGE_CURVE('',#414,#416,#31,.T.);
#556=EDGE_CURVE('',#412,#414,#36,.T.);
#560=EDGE_CURVE('',#427,#428,#40,.T.);
#562=EDGE_CURVE('',#432,#427,#44,.T.);
#564=EDGE_CURVE('',#430,#432,#48,.T.);
#566=EDGE_CURVE('',#428,#430,#52,.T.);
#577=EDGE_CURVE('',#412,#436,#60,.T.);
#579=EDGE_CURVE('',#435,#436,#88,.T.);
#581=EDGE_CURVE('',#411,#435,#56,.T.);
#592=EDGE_CURVE('',#414,#438,#64,.T.);
#594=EDGE_CURVE('',#436,#438,#93,.T.);
#606=EDGE_CURVE('',#416,#440,#68,.T.);
#608=EDGE_CURVE('',#438,#440,#97,.T.);
#620=EDGE_CURVE('',#418,#442,#72,.T.);
#622=EDGE_CURVE('',#440,#442,#102,.T.);
#634=EDGE_CURVE('',#420,#444,#76,.T.);
#636=EDGE_CURVE('',#442,#444,#106,.T.);
#648=EDGE_CURVE('',#422,#446,#80,.T.);
#650=EDGE_CURVE('',#444,#446,#111,.T.);
#662=EDGE_CURVE('',#424,#448,#84,.T.);
#664=EDGE_CURVE('',#446,#448,#115,.T.);
#677=EDGE_CURVE('',#448,#435,#120,.T.);
#698=EDGE_CURVE('',#475,#476,#140,.T.);
#700=EDGE_CURVE('',#476,#478,#145,.T.);
#702=EDGE_CURVE('',#478,#480,#149,.T.);
#704=EDGE_CURVE('',#480,#482,#154,.T.);
#706=EDGE_CURVE('',#482,#484,#158,.T.);
#708=EDGE_CURVE('',#484,#486,#163,.T.);
#710=EDGE_CURVE('',#486,#488,#167,.T.);
#712=EDGE_CURVE('',#488,#475,#172,.T.);
#722=EDGE_CURVE('',#491,#492,#176,.T.);
#724=EDGE_CURVE('',#492,#494,#180,.T.);
#726=EDGE_CURVE('',#494,#496,#184,.T.);
#728=EDGE_CURVE('',#496,#491,#188,.T.);
#732=EDGE_CURVE('',#451,#452,#124,.T.);
#734=EDGE_CURVE('',#452,#454,#128,.T.);
#736=EDGE_CURVE('',#454,#456,#132,.T.);
#738=EDGE_CURVE('',#456,#451,#136,.T.);
#749=EDGE_CURVE('',#428,#452,#196,.T.);
#752=EDGE_CURVE('',#427,#451,#192,.T.);
#763=EDGE_CURVE('',#430,#454,#200,.T.);
#776=EDGE_CURVE('',#432,#456,#204,.T.);
#801=EDGE_CURVE('',#475,#459,#208,.T.);
#803=EDGE_CURVE('',#459,#460,#276,.T.);
#805=EDGE_CURVE('',#476,#460,#236,.T.);
#816=EDGE_CURVE('',#488,#472,#212,.T.);
#818=EDGE_CURVE('',#472,#459,#281,.T.);
#830=EDGE_CURVE('',#486,#470,#216,.T.);
#832=EDGE_CURVE('',#470,#472,#285,.T.);
#844=EDGE_CURVE('',#484,#468,#220,.T.);
#846=EDGE_CURVE('',#468,#470,#290,.T.);
#858=EDGE_CURVE('',#482,#466,#224,.T.);
#860=EDGE_CURVE('',#466,#468,#294,.T.);
#872=EDGE_CURVE('',#480,#464,#228,.T.);
#874=EDGE_CURVE('',#464,#466,#299,.T.);
#886=EDGE_CURVE('',#478,#462,#232,.T.);
#888=EDGE_CURVE('',#462,#464,#303,.T.);
#901=EDGE_CURVE('',#460,#462,#308,.T.);
#922=EDGE_CURVE('',#499,#500,#240,.T.);
#924=EDGE_CURVE('',#512,#499,#245,.T.);
#926=EDGE_CURVE('',#510,#512,#249,.T.);
#928=EDGE_CURVE('',#508,#510,#254,.T.);
#930=EDGE_CURVE('',#506,#508,#258,.T.);
#932=EDGE_CURVE('',#504,#506,#263,.T.);
#934=EDGE_CURVE('',#502,#504,#267,.T.);
#936=EDGE_CURVE('',#500,#502,#272,.T.);
#947=EDGE_CURVE('',#500,#516,#316,.T.);
#949=EDGE_CURVE('',#515,#516,#344,.T.);
#951=EDGE_CURVE('',#499,#515,#312,.T.);
#962=EDGE_CURVE('',#502,#518,#320,.T.);
#964=EDGE_CURVE('',#516,#518,#349,.T.);
#976=EDGE_CURVE('',#504,#520,#324,.T.);
#978=EDGE_CURVE('',#518,#520,#353,.T.);
#990=EDGE_CURVE('',#506,#522,#328,.T.);
#992=EDGE_CURVE('',#520,#522,#358,.T.);
#1004=EDGE_CURVE('',#508,#524,#332,.T.);
#1006=EDGE_CURVE('',#522,#524,#362,.T.);
#1018=EDGE_CURVE('',#510,#526,#336,.T.);
#1020=EDGE_CURVE('',#524,#526,#367,.T.);
#1032=EDGE_CURVE('',#512,#528,#340,.T.);
#1034=EDGE_CURVE('',#526,#528,#371,.T.);
#1047=EDGE_CURVE('',#528,#515,#376,.T.);
#1058=EDGE_CURVE('',#531,#532,#380,.T.);
#1060=EDGE_CURVE('',#536,#531,#404,.T.);
#1062=EDGE_CURVE('',#534,#536,#396,.T.);
#1064=EDGE_CURVE('',#532,#534,#388,.T.);
#1085=EDGE_CURVE('',#492,#532,#392,.T.);
#1088=EDGE_CURVE('',#491,#531,#384,.T.);
#1099=EDGE_CURVE('',#494,#534,#400,.T.);
#1112=EDGE_CURVE('',#496,#536,#408,.T.);
#1133=(LENGTH_UNIT()NAMED_UNIT(*)SI_UNIT(.MILLI.,.METRE.));
#1135=(NAMED_UNIT(*)PLANE_ANGLE_UNIT()SI_UNIT($,.RADIAN.));
#1138=(NAMED_UNIT(*)SI_UNIT($,.STERADIAN.)SOLID_ANGLE_UNIT());
#1141=ADVANCED_BREP_SHAPE_REPRESENTATION('',(#1132),#1140);
#1148=PRODUCT_DEFINITION('design','',#1147,#1144);
#1149=PRODUCT_DEFINITION_SHAPE('','SHAPE FOR ZEISS_STAND_V4.',#1148);
#1150=SHAPE_DEFINITION_REPRESENTATION(#1149,#1141);
ENDSEC;
END-ISO-10303-21;
