﻿------------------------------
  Creo Parametric ECAD EXPORT Log File  
------------------------------
 
 
     Time Stamp         : 19-Feb-19 14:33:15
     Originating System : Creo Parametric 5.0 5.0.1.0
 
     Creo Parametric mode         : Part 
 
------------------------------
  Creo Parametric ECAD EXPORT Log File  
------------------------------
 
 
     Time Stamp         : 19-Feb-19 14:33:15
     Originating System : Creo Parametric 5.0 5.0.1.0
 

Error in writing to export file

Processing finished at: 19-Feb-19 14:33:15
