﻿------------------------------
  Creo Parametric ECAD EXPORT Log File  
------------------------------
 
 
     Time Stamp         : 19-Feb-19 14:33:56
     Originating System : Creo Parametric 5.0 5.0.1.0
 
     Creo Parametric mode         : Part 
 
     Format             : IDF3.0
     EXPORT to File     : 25pcntstrain.emn
     File Type          : Board

Successful export of data.

Coordinate Systems used:
------------------------
<CS0> Coordinate system was used for the main part

Processing finished at: 19-Feb-19 14:33:56
